{
  "project_info": {
    "project_number": "246869449234",
    "firebase_url": "https://android-sms-gate.firebaseio.com",
    "project_id": "android-sms-gate",
    "storage_bucket": "android-sms-gate.appspot.com"
  },
  "client": [
    {
      "client_info": {
        "mobilesdk_app_id": "1:246869449234:android:cc9412ab298d43b2",
        "android_client_info": {
          "package_name": "com.github.axet.smsgate"
        }
      },
      "oauth_client": [
        {
          "client_id": "246869449234-de0s3999fjgeuq4gip77sqjjt6upn6t9.apps.googleusercontent.com",
          "client_type": 3
        }
      ],
      "api_key": [
        {
          "current_key": "AIzaSyA_v_JCC_P3yyYglImXYjOiROPpqGC4zW8"
        }
      ],
      "services": {
        "analytics_service": {
          "status": 1
        },
        "appinvite_service": {
          "status": 1,
          "other_platform_oauth_client": []
        },
        "ads_service": {
          "status": 2
        }
      }
    }
  ],
  "configuration_version": "1"
}